{
  "project_info": {
    "project_number": "937778651618",
    "project_id": "demotest-d471f",
    "storage_bucket": "demotest-d471f.appspot.com"
  },
  "client": [
    {
      "client_info": {
        "mobilesdk_app_id": "1:937778651618:android:a9d64aa051db1913f8d9bb",
        "android_client_info": {
          "package_name": "com.demotest"
        }
      },
      "oauth_client": [
        {
          "client_id": "937778651618-la35stc1f5cc4is29i66i6u03vqrflj3.apps.googleusercontent.com",
          "client_type": 3
        }
      ],
      "api_key": [
        {
          "current_key": "AIzaSyABuvboFcVuIih7iQUSz7zzscIpeBgJHgg"
        }
      ],
      "services": {
        "appinvite_service": {
          "other_platform_oauth_client": [
            {
              "client_id": "937778651618-la35stc1f5cc4is29i66i6u03vqrflj3.apps.googleusercontent.com",
              "client_type": 3
            }
          ]
        }
      }
    }
  ],
  "configuration_version": "1"
}